…
10. (4 points) Make a plot that visualizes the chart from question #9. Make sure that the months are on the x-axis. Do a search online and figure out how to order the months Jan-Dec.


```r
n_mortality2<- n_mortality %>% 
  pivot_longer(-month,
               names_to="outcomes",
               values_to = "n")
n_mortality2
```

```
## # A tibble: 48 × 3
##    month outcomes       n
##    <chr> <chr>      <int>
##  1 Apr   dead_mort     12
##  2 Apr   alive_mort  2686
##  3 Apr   yes_comp     321
##  4 Apr   no_comp     2377
##  5 Aug   dead_mort      9
##  6 Aug   alive_mort  3168
##  7 Aug   yes_comp     462
##  8 Aug   no_comp     2715
##  9 Dec   dead_mort      4
## 10 Dec   alive_mort  1835
## # … with 38 more rows
```
…
