…
```r
ecosphere <- read_csv("data/ecs21351-sup-0003-SupplementS1.csv", skip=2) %>% 
  clean_names() %>%
  slice(1:(n() - 18)) # this removes the footer
```

Problem 1. (1 point) Let's start with some data exploration. What are the variable names?

```r
ecosphere
```

```
## # A tibble: 551 × 21
##    order    family commo…¹ scien…² diet  life_…³ habitat urban…⁴ migra…⁵ log10…⁶
##    <chr>    <chr>  <chr>   <chr>   <chr> <chr>   <chr>   <chr>   <chr>     <dbl>
##  1 Anserif… Anati… "Ameri… Anas r… Vege… Long    Wetland No      Short      3.09
##  2 Anserif… Anati… "Ameri… Anas a… Vege… Middle  Wetland No      Short      2.88
##  3 Anserif… Anati… "Barro… Buceph… Inve… Middle  Wetland No      Modera…    2.96
##  4 Anserif… Anati… "Black… Branta… Vege… Long    Wetland No      Modera…    3.11
##  5 Anserif… Anati… "Black… Melani… Inve… Middle  Wetland No      Modera…    3.02
##  6 Anserif… Anati… "Black… Dendro… Vege… Short   Wetland No      Withdr…    2.88
##  7 Anserif… Anati… "Blue-… Anas d… Vege… Middle  Wetland No      Modera…    2.56
##  8 Anserif… Anati… "Buffl… Buceph… Inve… Middle  Wetland No      Short      2.6 
##  9 Anserif… Anati… "Cackl… Branta… Vege… Middle  Wetland Yes     Short      3.45
## 10 Anserif… Anati… "Canva… Aythya… Vege… Middle  Wetland No      Short      3.08
## # … with 541 more rows, 11 more variables: mean_eggs_per_clutch <dbl>,
## #   mean_age_at_sexual_maturity <dbl>, population_size <dbl>,
## #   winter_range_area <dbl>, range_in_cbc <dbl>, strata <dbl>, circles <dbl>,
## #   feeder_bird <chr>, median_trend <dbl>, lower_95_percent_ci <dbl>,
## #   upper_95_percent_ci <dbl>, and abbreviated variable names ¹​common_name,
## #   ²​scientific_name, ³​life_expectancy, ⁴​urban_affiliate, ⁵​migratory_strategy,
## #   ⁶​log10_mass
```
…
```r
?slice_max
```

Problem 5. (4 points) Using the `slice_max()` or `slice_min()` function described above which species has the largest and smallest winter range?

```r
ecosphere %>% 
  select(scientific_name,winter_range_area) %>% 
  arrange(winter_range_area)
```

```
## # A tibble: 551 × 2
##    scientific_name           winter_range_area
##    <chr>                                 <dbl>
##  1 Alauda arvensis                          11
##  2 Acridotheres cristatellus               193
##  3 Aphelocoma coerulescens                5713
##  4 Acridotheres tristis                  31977
##  5 Selasphorus sasin                     42584
##  6 Passer montanus                       43577
##  7 Grus americana                        61809
##  8 Plectrophenax hyperboreus             72143
##  9 Pica nuttalli                         83615
## 10 Amazona viridigenalis                 83675
## # … with 541 more rows
```
…
```r
ducks<- ecosphere %>% 
  filter(family=="Anatidae") %>% 
  select(-order,-family)
ducks
```

```
## # A tibble: 44 × 19
##    commo…¹ scien…² diet  life_…³ habitat urban…⁴ migra…⁵ log10…⁶ mean_…⁷ mean_…⁸
##    <chr>   <chr>   <chr> <chr>   <chr>   <chr>   <chr>     <dbl>   <dbl>   <dbl>
##  1 "Ameri… Anas r… Vege… Long    Wetland No      Short      3.09     9       1  
##  2 "Ameri… Anas a… Vege… Middle  Wetland No      Short      2.88     7.5     1  
##  3 "Barro… Buceph… Inve… Middle  Wetland No      Modera…    2.96    10.5     3  
##  4 "Black… Branta… Vege… Long    Wetland No      Modera…    3.11     3.5     2.5
##  5 "Black… Melani… Inve… Middle  Wetland No      Modera…    3.02     9.5     2  
##  6 "Black… Dendro… Vege… Short   Wetland No      Withdr…    2.88    13.5     1  
##  7 "Blue-… Anas d… Vege… Middle  Wetland No      Modera…    2.56    10       0.6
##  8 "Buffl… Buceph… Inve… Middle  Wetland No      Short      2.6      8.5     2  
##  9 "Cackl… Branta… Vege… Middle  Wetland Yes     Short      3.45     5       1  
## 10 "Canva… Aythya… Vege… Middle  Wetland No      Short      3.08     8       1  
## # … with 34 more rows, 9 more variables: population_size <dbl>,
## #   winter_range_area <dbl>, range_in_cbc <dbl>, strata <dbl>, circles <dbl>,
## #   feeder_bird <chr>, median_trend <dbl>, lower_95_percent_ci <dbl>,
## #   upper_95_percent_ci <dbl>, and abbreviated variable names ¹​common_name,
## #   ²​scientific_name, ³​life_expectancy, ⁴​urban_affiliate, ⁵​migratory_strategy,
## #   ⁶​log10_mass, ⁷​mean_eggs_per_clutch, ⁸​mean_age_at_sexual_maturity
```
…
Problem 12. (4 points) Use the `ecosphere` data to perform one exploratory analysis of your choice. The analysis must have a minimum of three lines and two functions. You must also clearly state the question you are attempting to answer.
Which species has the max mean eggs per clutch of ducks?


The Red-breasted Merganser has the max mean eggs per clutch in the Anatidae family.

```r
ecosphere %>% 
  filter(family=="Anatidae") %>% 
  select(common_name,mean_eggs_per_clutch) %>% 
  arrange(desc(mean_eggs_per_clutch))
```

```
## # A tibble: 44 × 2
##    common_name                  mean_eggs_per_clutch
##    <chr>                                       <dbl>
##  1 Red-breasted Merganser                       14.5
##  2 Black-bellied Whistling-Duck                 13.5
##  3 Fulvous Whistling-Duck                       13  
##  4 Hooded Merganser                             11  
##  5 White-winged Scoter                          11  
##  6 Barrow's Goldeneye                           10.5
##  7 Common Merganser                             10.5
##  8 Wood Duck                                    10.5
##  9 Blue-winged Teal                             10  
## 10 Cinnamon Teal                                10  
## # … with 34 more rows
```
…
