…
```r
fisheries<-fisheries %>% 
  mutate(across(
    c(country,
      isscaap_group_number,
      asfis_species_number,
      fao_major_fishing_area), as_factor) )
fisheries
```

```
## # A tibble: 17,692 × 71
##    country common_…¹ issca…² issca…³ asfis…⁴ asfis…⁵ fao_m…⁶ measure x1950 x1951
##    <fct>   <chr>     <fct>   <chr>   <fct>   <chr>   <fct>   <chr>   <chr> <chr>
##  1 Albania Angelsha… 38      Sharks… 10903X… Squati… 37      Quanti… <NA>  <NA> 
##  2 Albania Atlantic… 36      Tunas,… 175010… Sarda … 37      Quanti… <NA>  <NA> 
##  3 Albania Barracud… 37      Miscel… 177100… Sphyra… 37      Quanti… <NA>  <NA> 
##  4 Albania Blue and… 45      Shrimp… 228020… Ariste… 37      Quanti… <NA>  <NA> 
##  5 Albania Blue whi… 32      Cods, … 148040… Microm… 37      Quanti… <NA>  <NA> 
##  6 Albania Bluefish  37      Miscel… 170202… Pomato… 37      Quanti… <NA>  <NA> 
##  7 Albania Bogue     33      Miscel… 170392… Boops … 37      Quanti… <NA>  <NA> 
##  8 Albania Caramote… 45      Shrimp… 228010… Penaeu… 37      Quanti… <NA>  <NA> 
##  9 Albania Catshark… 38      Sharks… 108010… Scylio… 37      Quanti… <NA>  <NA> 
## 10 Albania Common c… 57      Squids… 321020… Sepia … 37      Quanti… <NA>  <NA> 
## # … with 17,682 more rows, 61 more variables: x1952 <chr>, x1953 <chr>,
## #   x1954 <chr>, x1955 <chr>, x1956 <chr>, x1957 <chr>, x1958 <chr>,
## #   x1959 <chr>, x1960 <chr>, x1961 <chr>, x1962 <chr>, x1963 <chr>,
## #   x1964 <chr>, x1965 <chr>, x1966 <chr>, x1967 <chr>, x1968 <chr>,
## #   x1969 <chr>, x1970 <chr>, x1971 <chr>, x1972 <chr>, x1973 <chr>,
## #   x1974 <chr>, x1975 <chr>, x1976 <chr>, x1977 <chr>, x1978 <chr>,
## #   x1979 <chr>, x1980 <chr>, x1981 <chr>, x1982 <chr>, x1983 <chr>, …
```
…
fisheries_tidy$catch <- as.numeric(fisheries_tidy$catch)
```

3. How many countries are represented in the data? Provide a count and list their names.


There are 204 unique countries in the data.

```r
fisheries %>% 
  count(country) 
```

```
## # A tibble: 204 × 2
##    country                 n
##    <fct>               <int>
##  1 Albania                67
##  2 Algeria                59
##  3 American Samoa         32
##  4 Angola                 88
##  5 Anguilla                3
##  6 Antigua and Barbuda    22
##  7 Argentina             140
##  8 Aruba                   5
##  9 Australia             301
## 10 Bahamas                14
## # … with 194 more rows
```

4. Refocus the data only to include country, isscaap_taxonomic_group, asfis_species_name, asfis_species_number, year, catch.

```r
fisheries_tidy %>% 
  select(country,
         isscaap_taxonomic_group,
         asfis_species_name,
         asfis_species_number,
         year,
         catch)
```

```
## # A tibble: 376,771 × 6
##    country isscaap_taxonomic_group asfis_species_name asfis_specie…¹  year catch
##    <fct>   <chr>                   <chr>              <fct>          <dbl> <dbl>
##  1 Albania Sharks, rays, chimaeras Squatinidae        10903XXXXX      1995    NA
##  2 Albania Sharks, rays, chimaeras Squatinidae        10903XXXXX      1996    53
##  3 Albania Sharks, rays, chimaeras Squatinidae        10903XXXXX      1997    20
##  4 Albania Sharks, rays, chimaeras Squatinidae        10903XXXXX      1998    31
##  5 Albania Sharks, rays, chimaeras Squatinidae        10903XXXXX      1999    30
##  6 Albania Sharks, rays, chimaeras Squatinidae        10903XXXXX      2000    30
##  7 Albania Sharks, rays, chimaeras Squatinidae        10903XXXXX      2001    16
##  8 Albania Sharks, rays, chimaeras Squatinidae        10903XXXXX      2002    79
##  9 Albania Sharks, rays, chimaeras Squatinidae        10903XXXXX      2003     1
## 10 Albania Sharks, rays, chimaeras Squatinidae        10903XXXXX      2004     4
## # … with 376,761 more rows, and abbreviated variable name ¹​asfis_species_number
```
…
6. Which country had the largest overall catch in the year 2000?
Peru had the largest overall catch

```r
fisheries_tidy %>% 
  arrange(desc(catch))
```

```
## # A tibble: 376,771 × 10
##    country   commo…¹ issca…² issca…³ asfis…⁴ asfis…⁵ fao_m…⁶ measure  year catch
##    <fct>     <chr>   <fct>   <chr>   <fct>   <chr>   <fct>   <chr>   <dbl> <dbl>
##  1 Peru      Anchov… 35      Herrin… 121060… Engrau… 87      Quanti…  1970 77000
##  2 Peru      Anchov… 35      Herrin… 121060… Engrau… 87      Quanti…  1971 76800
##  3 Peru      Anchov… 35      Herrin… 121060… Engrau… 87      Quanti…  1968 62700
##  4 Peru      Anchov… 35      Herrin… 121060… Engrau… 87      Quanti…  1992  9966
##  5 Japan     Japane… 35      Herrin… 121050… Sardin… 61      Quanti…  1982  9954
##  6 Chile     Chilea… 37      Miscel… 170230… Trachu… 87      Quanti…  2006  9941
##  7 Chile     Chilea… 37      Miscel… 170230… Trachu… 87      Quanti…  2001  9933
##  8 United S… Alaska… 32      Cods, … 148040… Therag… 67      Quanti…  2004  9928
##  9 Chile     South … 35      Herrin… 121050… Sardin… 87      Quanti…  1989  9904
## 10 China     Marine… 39      Marine… 199XXX… Osteic… 61      Quanti…  1975  9899
## # … with 376,761 more rows, and abbreviated variable names ¹​common_name,
## #   ²​isscaap_group_number, ³​isscaap_taxonomic_group, ⁴​asfis_species_number,
## #   ⁵​asfis_species_name, ⁶​fao_major_fishing_area
```

7. Which country caught the most sardines (_Sardina pilchardus_) between the years 1990-2000?

```r
fisheries_tidy %>% 
  filter(year>="1990"|year<="2000") %>% 
  filter(asfis_species_name == "Sardina pilchardus") %>% 
  arrange(desc(catch))
```

```
## # A tibble: 1,655 × 10
##    country   commo…¹ issca…² issca…³ asfis…⁴ asfis…⁵ fao_m…⁶ measure  year catch
##    <fct>     <chr>   <fct>   <chr>   <fct>   <chr>   <fct>   <chr>   <dbl> <dbl>
##  1 Spain     Europe… 35      Herrin… 121050… Sardin… 34      Quanti…  1989   986
##  2 Un. Sov.… Europe… 35      Herrin… 121050… Sardin… 34      Quanti…  1976   978
##  3 Morocco   Europe… 35      Herrin… 121050… Sardin… 34      Quanti…  1994   947
##  4 Ukraine   Europe… 35      Herrin… 121050… Sardin… 34      Quanti…  1989   945
##  5 Spain     Europe… 35      Herrin… 121050… Sardin… 34      Quanti…  1987   934
##  6 Morocco   Europe… 35      Herrin… 121050… Sardin… 34      Quanti…  1996   925
##  7 Russian … Europe… 35      Herrin… 121050… Sardin… 34      Quanti…  1988   923
##  8 Spain     Europe… 35      Herrin… 121050… Sardin… 34      Quanti…  1996   912
##  9 Morocco   Europe… 35      Herrin… 121050… Sardin… 34      Quanti…  1960   900
## 10 Morocco   Europe… 35      Herrin… 121050… Sardin… 34      Quanti…  1965   900
## # … with 1,645 more rows, and abbreviated variable names ¹​common_name,
## #   ²​isscaap_group_number, ³​isscaap_taxonomic_group, ⁴​asfis_species_number,
## #   ⁵​asfis_species_name, ⁶​fao_major_fishing_area
```
…
9. Which species had the highest catch total between 2008-2012? (hint: Osteichthyes is not a species)
Theragra chalocogramma because osteichthyes are not a species

```r
fisheries_tidy %>% 
  group_by(asfis_species_name) %>% 
  filter(between(year,2008,2012)) %>% 
  summarize(catch_total=sum(catch, na.rm=T)) %>% 
  arrange(desc(catch_total))
```

```
## # A tibble: 1,472 × 2
##    asfis_species_name    catch_total
##    <chr>                       <dbl>
##  1 Osteichthyes               107808
##  2 Theragra chalcogramma       41075
##  3 Engraulis ringens           35523
##  4 Katsuwonus pelamis          32153
##  5 Trichiurus lepturus         30400
##  6 Clupea harengus             28527
##  7 Thunnus albacares           20119
##  8 Scomber japonicus           14723
##  9 Gadus morhua                13253
## 10 Thunnus alalunga            12019
## # … with 1,462 more rows
```
…
