…
## Questions
The questions below are open-ended and have many possible solutions. Your approach should, where appropriate, include numerical summaries and visuals. Be creative; assume you are building an analysis that you would ultimately present to an audience of stakeholders. Feel free to try out different `geoms` if they more clearly present your results.  

**1. Use the function(s) of your choice to get an idea of the overall structure of the data frame, including its dimensions, column names, variable classes, etc. As part of this, determine how NA's are treated in the data.** 

```r
gapminder
```

```
## # A tibble: 1,704 × 6
##    country     continent  year lifeExp      pop gdpPercap
##    <fct>       <fct>     <int>   <dbl>    <int>     <dbl>
##  1 Afghanistan Asia       1952    28.8  8425333      779.
##  2 Afghanistan Asia       1957    30.3  9240934      821.
##  3 Afghanistan Asia       1962    32.0 10267083      853.
##  4 Afghanistan Asia       1967    34.0 11537966      836.
##  5 Afghanistan Asia       1972    36.1 13079460      740.
##  6 Afghanistan Asia       1977    38.4 14880372      786.
##  7 Afghanistan Asia       1982    39.9 12881816      978.
##  8 Afghanistan Asia       1987    40.8 13867957      852.
##  9 Afghanistan Asia       1992    41.7 16317921      649.
## 10 Afghanistan Asia       1997    41.8 22227415      635.
## # … with 1,694 more rows
```
…
```r
gapminder2 %>% 
  group_by(year,continent) %>% 
  summarize("mean_life_exp"=mean(lifeExp, .groups='keep')) %>%
  arrange(year)
```

```
## `summarise()` has grouped output by 'year'. You can override using the
## `.groups` argument.
```

```
## # A tibble: 60 × 3
## # Groups:   year [12]
##    year  continent mean_life_exp
##    <fct> <fct>             <dbl>
##  1 1952  Africa             39.1
##  2 1952  Americas           53.3
##  3 1952  Asia               46.3
##  4 1952  Europe             64.4
##  5 1952  Oceania            69.3
##  6 1957  Africa             41.3
##  7 1957  Americas           56.0
##  8 1957  Asia               49.3
##  9 1957  Europe             66.7
## 10 1957  Oceania            70.3
## # … with 50 more rows
```
…
```r
gapminder2 %>% 
  filter(country=="Brazil"|country=="China"|country=="India"|country=="Indonesia|"|country=="United States") %>% 
  group_by(year,country) %>% 
  summarize("mean_gdp_per_capita"=mean(gdpPercap, .groups='keep'))
```

```
## `summarise()` has grouped output by 'year'. You can override using the
## `.groups` argument.
```

```
## # A tibble: 48 × 3
## # Groups:   year [12]
##    year  country       mean_gdp_per_capita
##    <fct> <fct>                       <dbl>
##  1 1952  Brazil                      2109.
##  2 1952  China                        400.
##  3 1952  India                        547.
##  4 1952  United States              13990.
##  5 1957  Brazil                      2487.
##  6 1957  China                        576.
##  7 1957  India                        590.
##  8 1957  United States              14847.
##  9 1962  Brazil                      3337.
## 10 1962  China                        488.
## # … with 38 more rows
```
…
