…
2. Make a plot that compares heartrate (as a range) for each drug.


```
## # A tibble: 24 × 3
##    patient  drug  heartbeats
##    <chr>    <chr>      <dbl>
##  1 Margaret a             72
##  2 Margaret b             74
##  3 Margaret c             80
##  4 Margaret d             68
##  5 Frank    a             84
##  6 Frank    b             84
##  7 Frank    c             88
##  8 Frank    d             76
##  9 Hawkeye  a             64
## 10 Hawkeye  b             66
## # … with 14 more rows
```
…
