…
## Practice
1. Re-examine `heartrate2`. Use `separate()` for the sexes, `pivot_longer()` to tidy, and `arrange()` to organize by patient and drug. Store this as a new object `heartrate3`.  

```r
heartrate3<-heartrate2 %>% 
  separate(patient, into=c("patient","sex"), sep= "_") %>% 
  pivot_longer(a:d,
               names_to = "drug",
               values_to = "heartbeat") %>% 
  arrange(patient,drug)
heartrate3
```

```
## # A tibble: 24 × 4
##    patient sex   drug  heartbeat
##    <chr>   <chr> <chr>     <dbl>
##  1 Frank   m     a            84
##  2 Frank   m     b            84
##  3 Frank   m     c            88
##  4 Frank   m     d            76
##  5 Hawkeye m     a            64
##  6 Hawkeye m     b            66
##  7 Hawkeye m     c            68
##  8 Hawkeye m     d            64
##  9 Henry   m     a            88
## 10 Henry   m     b            87
## # … with 14 more rows
```

2. `unite()` is the opposite of separate(). Its syntax is straightforward. You only need to give a new column name and then list the columns to combine with a separation character.  Give it a try below by recombining patient and sex from `heartrate3`.  

```r
heartrate3 %>% 
  unite(patient_sex,"patient","sex", sep="_")
```

```
## # A tibble: 24 × 3
##    patient_sex drug  heartbeat
##    <chr>       <chr>     <dbl>
##  1 Frank_m     a            84
##  2 Frank_m     b            84
##  3 Frank_m     c            88
##  4 Frank_m     d            76
##  5 Hawkeye_m   a            64
##  6 Hawkeye_m   b            66
##  7 Hawkeye_m   c            68
##  8 Hawkeye_m   d            64
##  9 Henry_m     a            88
## 10 Henry_m     b            87
## # … with 14 more rows
```
…
```r
beachbugs
```

```
## # A tibble: 66 × 3
##     year site                    buglevels
##    <dbl> <chr>                       <dbl>
##  1  2013 Bondi Beach                 32.2 
##  2  2013 Bronte Beach                26.8 
##  3  2013 Clovelly Beach               9.28
##  4  2013 Coogee Beach                39.7 
##  5  2013 Gordons Bay (East)          24.8 
##  6  2013 Little Bay Beach           122.  
##  7  2013 Malabar Beach              101.  
##  8  2013 Maroubra Beach              47.1 
##  9  2013 South Maroubra Beach        39.3 
## 10  2013 South Maroubra Rockpool     96.4 
## # … with 56 more rows
```
…
3. Now, use `pivot_longer` to transform them back to long!

```r
beachbugs2 %>% 
  pivot_longer(-year,
               names_to="site",
               values_to="buglevels")
```

```
## # A tibble: 66 × 3
##     year site                    buglevels
##    <dbl> <chr>                       <dbl>
##  1  2013 Bondi Beach                 32.2 
##  2  2013 Bronte Beach                26.8 
##  3  2013 Clovelly Beach               9.28
##  4  2013 Coogee Beach                39.7 
##  5  2013 Gordons Bay (East)          24.8 
##  6  2013 Little Bay Beach           122.  
##  7  2013 Malabar Beach              101.  
##  8  2013 Maroubra Beach              47.1 
##  9  2013 South Maroubra Beach        39.3 
## 10  2013 South Maroubra Rockpool     96.4 
## # … with 56 more rows
```
…
