…
```
## [1] 17
```

```r
wolves_lower_48<-wolves %>% 
  select(pop,lat,long) %>% 
  filter(lat<=49)
wolves_lower_48
```

```
## # A tibble: 1,169 × 3
##    pop     lat  long
##    <chr> <dbl> <dbl>
##  1 GTNP   43.8 -111.
##  2 GTNP   43.8 -111.
##  3 GTNP   43.8 -111.
##  4 GTNP   43.8 -111.
##  5 GTNP   43.8 -111.
##  6 GTNP   43.8 -111.
##  7 GTNP   43.8 -111.
##  8 GTNP   43.8 -111.
##  9 GTNP   43.8 -111.
## 10 GTNP   43.8 -111.
## # … with 1,159 more rows
```
…
