…
```r
amniota
```

```
## # A tibble: 21,322 × 36
##    class order      family genus species subsp…¹ commo…² femal…³ litte…⁴ litte…⁵
##    <chr> <chr>      <chr>  <chr> <chr>     <dbl> <chr>     <dbl>   <dbl>   <dbl>
##  1 Aves  Accipitri… Accip… Acci… albogu…    -999 Pied G…   -999  -999       -999
##  2 Aves  Accipitri… Accip… Acci… badius     -999 Shikra     363.    3.25       1
##  3 Aves  Accipitri… Accip… Acci… bicolor    -999 Bicolo…   -999     2.7     -999
##  4 Aves  Accipitri… Accip… Acci… brachy…    -999 New Br…   -999  -999       -999
##  5 Aves  Accipitri… Accip… Acci… brevip…    -999 Levant…    363.    4          1
##  6 Aves  Accipitri… Accip… Acci… castan…    -999 Chestn…   -999  -999       -999
##  7 Aves  Accipitri… Accip… Acci… chilen…    -999 Chilea…   -999     2.7     -999
##  8 Aves  Accipitri… Accip… Acci… chiono…    -999 White-…    548.    4.25       1
##  9 Aves  Accipitri… Accip… Acci… cirroc…    -999 Collar…   -999     3.25    -999
## 10 Aves  Accipitri… Accip… Acci… cooper…    -999 Cooper…    730     4.35       1
## # … with 21,312 more rows, 26 more variables: adult_body_mass_g <dbl>,
## #   maximum_longevity_y <dbl>, gestation_d <dbl>, weaning_d <dbl>,
## #   birth_or_hatching_weight_g <dbl>, weaning_weight_g <dbl>, egg_mass_g <dbl>,
## #   incubation_d <dbl>, fledging_age_d <dbl>, longevity_y <dbl>,
## #   male_maturity_d <dbl>, inter_litter_or_interbirth_interval_y <dbl>,
## #   female_body_mass_g <dbl>, male_body_mass_g <dbl>, no_sex_body_mass_g <dbl>,
## #   egg_width_mm <dbl>, egg_length_mm <dbl>, fledging_mass_g <dbl>, …
```
…
## `naniar`
`naniar` is a package that is built to manage NA's. Many of the functions it performs can also be performed using tidyverse functions, but it does provide some interesting alternatives.  

`miss_var_summary` provides a nice, clean summary of NA's across the data frame.

```r
naniar::miss_var_summary(amniota_tidy)
```

```
## # A tibble: 36 × 3
##    variable                       n_miss pct_miss
##    <chr>                           <int>    <dbl>
##  1 subspecies                      21322    100  
##  2 female_body_mass_at_maturity_g  21318    100. 
##  3 female_svl_at_maturity_cm       21120     99.1
##  4 fledging_mass_g                 21111     99.0
##  5 male_svl_cm                     21040     98.7
##  6 no_sex_maturity_d               20860     97.8
##  7 egg_width_mm                    20727     97.2
##  8 egg_length_mm                   20702     97.1
##  9 weaning_weight_g                20258     95.0
## 10 female_svl_cm                   20242     94.9
## # … with 26 more rows
```
…
```r
life_history_tidy
```

```
## # A tibble: 1,440 × 13
##    order       family Genus species   mass gesta…¹ newborn weaning wean …²   AFR
##    <chr>       <chr>  <chr> <chr>    <dbl>   <dbl>   <dbl>   <dbl>   <dbl> <dbl>
##  1 Artiodacty… Antil… Anti… americ… 4.54e4    8.13   3246.    3       8900  13.5
##  2 Artiodacty… Bovid… Addax nasoma… 1.82e5    9.39   5480     6.5       NA  27.3
##  3 Artiodacty… Bovid… Aepy… melamp… 4.15e4    6.35   5093     5.63   15900  16.7
##  4 Artiodacty… Bovid… Alce… busela… 1.5 e5    7.9   10167.    6.5       NA  23.0
##  5 Artiodacty… Bovid… Ammo… clarkei 2.85e4    6.8      NA    NA         NA  NA  
##  6 Artiodacty… Bovid… Ammo… lervia  5.55e4    5.08   3810     4         NA  14.9
##  7 Artiodacty… Bovid… Anti… marsup… 3   e4    5.72   3910     4.04      NA  10.2
##  8 Artiodacty… Bovid… Anti… cervic… 3.75e4    5.5    3846     2.13      NA  20.1
##  9 Artiodacty… Bovid… Bison bison   4.98e5    8.93  20000    10.7   157500  29.4
## 10 Artiodacty… Bovid… Bison bonasus 5   e5    9.14  23000.    6.6       NA  30.0
## # … with 1,430 more rows, 3 more variables: `max. life` <dbl>,
## #   `litter size` <dbl>, `litters/year` <dbl>, and abbreviated variable names
## #   ¹​gestation, ²​`wean mass`
```
…
